*-------------------------------------------------------------------------------------------------------
* Clock generator registers
*-------------------------------------------------------------------------------------------------------
* RegName                 Addr          Defval                  Value                           BitSize
*-------------------------------------------------------------------------------------------------------
CLKGConfig0               0x020         0b00000000              0b00000000                          8

*-------------------------------------------------------------------------------------------------------
* Uplink: ePort Inputs DLL’s
*-------------------------------------------------------------------------------------------------------
* RegName                 Addr          Defval                  Value                           BitSize
*-------------------------------------------------------------------------------------------------------
EPRXDllConfig             0x034         0b01010001              0b01010001                          8
